[
    {
        "name": "microsoft",
        "fr_ahocorasick": [
            "microsoft"
        ],
        "en_ahocorasick": [
            "microsoft"
        ]
    },
    {
        "name": "google",
        "fr_ahocorasick": [
            "google"
        ],
        "en_ahocorasick": [
            "google"
        ]
    },
    {
        "name": "apple",
        "fr_ahocorasick": [
            "apple"
        ],
        "en_ahocorasick": [
            "apple"
        ]
    },
    {
        "name": "facebook",
        "fr_ahocorasick": [
            "facebook"
        ],
        "en_ahocorasick": [
            "facebook"
        ]
    },
    {
        "name": "amazon",
        "fr_ahocorasick": [
            "amazon"
        ],
        "en_ahocorasick": [
            "amazon"
        ]
    },
    {
        "name": "symantec",
        "fr_ahocorasick": [
            "symantec"
        ],
        "en_ahocorasick": [
            "symantec"
        ]
    },
    {
        "name": "ibm",
        "fr_ahocorasick": [
            "ibm"
        ],
        "en_ahocorasick": [
            "ibm"
        ]
    },
    {
        "name": "netwrix",
        "fr_ahocorasick": [
            "netwrix"
        ],
        "en_ahocorasick": [
            "netwrix"
        ]
    },
    {
        "name": "kaspersky",
        "fr_ahocorasick": [
            "kaspersky"
        ],
        "en_ahocorasick": [
            "kaspersky"
        ]
    },
    {
        "name": "deloitte",
        "fr_ahocorasick": [
            "deloitte"
        ],
        "en_ahocorasick": [
            "deloitte"
        ]
    },
    {
        "name": "bigid",
        "fr_ahocorasick": [
            "bigid"
        ],
        "en_ahocorasick": [
            "bigid"
        ]
    },
    {
        "name": "renault",
        "fr_ahocorasick": [
            "renault"
        ],
        "en_ahocorasick": [
            "renault"
        ]
    },
    {
        "name": "faurecia",
        "fr_ahocorasick": [
            "faurecia"
        ],
        "en_ahocorasick": [
            "faurecia"
        ]
    },
    {
        "name": "bmw",
        "fr_ahocorasick": [
            "bmw"
        ],
        "en_ahocorasick": [
            "bmw"
        ]
    },
    {
        "name": "honda",
        "fr_ahocorasick": [
            "honda"
        ],
        "en_ahocorasick": [
            "honda"
        ]
    },
    {
        "name": "valeo",
        "fr_ahocorasick": [
            "valeo"
        ],
        "en_ahocorasick": [
            "valeo"
        ]
    },
    {
        "name": "volkswagen",
        "fr_ahocorasick": [
            "volkswagen",
            " vw "
        ],
        "en_ahocorasick": [
            "volkswagen",
            " vw "
        ]
    },
    {
        "name": "hyundai",
        "fr_ahocorasick": [
            "hyundai"
        ],
        "en_ahocorasick": [
            "hyundai"
        ]
    },
    {
        "name": "daimler",
        "fr_ahocorasick": [
            "daimler"
        ],
        "en_ahocorasick": [
            "daimler"
        ]
    },
    {
        "name": "tesla",
        "fr_ahocorasick": [
            "tesla"
        ],
        "en_ahocorasick": [
            "tesla"
        ]
    },
    {
        "name": "mclaren",
        "fr_ahocorasick": [
            "mclaren"
        ],
        "en_ahocorasick": [
            "mclaren"
        ]
    },
    {
        "name": "venturi",
        "fr_ahocorasick": [
            "venturi"
        ],
        "en_ahocorasick": [
            "venturi"
        ]
    },
    {
        "name": "plug power",
        "fr_ahocorasick": [
            "plug power"
        ],
        "en_ahocorasick": [
            "plug power"
        ]
    },
    {
        "name": "weproov",
        "fr_ahocorasick": [
            "weproov"
        ],
        "en_ahocorasick": [
            "weproov"
        ]
    },
    {
        "name": "audi",
        "fr_ahocorasick": [
            "audi "
        ],
        "en_ahocorasick": [
            "audi "
        ]
    },
    {
        "name": "porsche",
        "fr_ahocorasick": [
            "porsche"
        ],
        "en_ahocorasick": [
            "porsche"
        ]
    },
    {
        "name": "mercedes",
        "fr_ahocorasick": [
            "mercedes"
        ],
        "en_ahocorasick": [
            "mercedes"
        ]
    }
]